{
	"USER_NOT_FOUND": "User not found",
	"EMAIL_NOT_VERIFIED": "Email not verified",
	"WRONG_PASSWORD": "Wrong password",
	"INVALID_USERNAME_OR_EMAIL": "Invalid username or email",
	"ACCOUNT_NOT_ACTIVE": "Account not active",
	"INVALID_BLOCKCHAIN_ADDRESS": "Invalid blockchain address",
	"NO_RECORD_FOUND": "No record found",
	"INVALID_ADDRESS": "Invalid address",
	"SOMETHING_WENT_WRONG": "Something went wrong",
	"USERNAME_ALREADY_EXISTS": "UserName already exists",
	"EMAIL_ALREADY_EXISTS": "Email already exists",
	"FILE_UPLOAD_FAILED": "File upload failed",
	"WITHDRAW_REQUEST_ALREADY_EXISTS": "Withdraw request already exists",
	"PREVIOUS_REQUEST_IS_PENDING": "Previous withdraw is pending",
	"PREVIOUS_REQUEST_IS_EXPIRED": "Previous withdraw is expired",
	"CAN_NOT_CANCEL_MATCHED_BET": "Can not cancel matched bet",
	"CAN_NOT_CANCEL_SETTLED_BET": "Can not cancel settled bet",
	"CAN_NOT_CANCEL_CASHED_OUT_BET": "Can not cancel cashed out bet",
	"BET_CANCELLATION_FAILED": "Bet cancellation failed",
	"PLAYER_NOT_FOUND": "Player not found",
	"PLAYER_FOUND": "Player found",
	"REQUEST_IS_EXPIRED": "Request is expired",
	"USER_UPDATION_FAILED": "User updation failed",
	"SPORT_NOT_FOUND": "Sport not found",
	"LEAGUE_NOT_FOUND": "League not found",
	"EVENT_NOT_FOUND": "Event not found",
	"MARKET_NOT_FOUND": "Market not found",
	"WALLET_NOT_FOUND": "Wallet not found",
	"BETS_NOT_FOUND": "Bets not found",
	"WITHDRAW_REQUEST_NOT_FOUND": "Withdraw request not found",
	"EVENT_IS_NOT_FINISHED_YET": "Event is not finished yet",
	"WITHDRAW_APPROVAL_REJECTED": "Withdraw approval rejected",
	"GIVEN_ADDRESS_AND_RECOVERED_ADDRESS_MISMATCH": "Given address and recovered address mismatch",
	"BET_IS_NOT_CANCELLED": "Bet is not cancelled",
	"PLACE_BET_APPROVAL_REJECTED": "Placing bet approval is rejected",
	"EVENT_IS_FINISHED": "Event is finished",
	"STAKE_SHOULD_BE_IN_RANGE": "Stake should be in range",
	"ODDS_SHOULD_BE_IN_RANGE": "Odds should be in range",
	"BETTING_NOT_ALLOWED": "Betting not allowed",
	"USDT_REQUEST_EXCEEDED": "You can request free TestUSDT once every 24 hours. Please try again later",
	"FAILED_TO_CERATE_LEDGER_ENTRY": "Failed to create ledger entry",
	"EVENT_NOT_SETTLED_TO_WITHDRAW": "Event is not yet settled, please withdraw after sometime",
  "CAN_NOT_GENERATE_REQUEST_FOR_SAME_FIXTURE_WITHIN_2_MINUTES": "Can not generate request for same fixture within 2 minutes"
}
